{
  "images" : [
    {
      "filename" : "illustration-characters-with-traveling-concept_53876-43949.jpg",
      "idiom" : "universal"
    }
  ],
  "info" : {
    "author" : "xcode",
    "version" : 1
  }
}
